{
  "build": {
    "beforeDevCommand": "npm run dev",
    "beforeBuildCommand": "npm run build",
    "devPath": "http://localhost:1420",
    "distDir": "../dist",
    "withGlobalTauri": false
  },
  "package": {
    "productName": "simple-markdown-viewer",
    "version": "0.0.8"
  },
  "tauri": {
    "allowlist": {
      "all": false,
      "shell": {
        "all": false,
        "open": true
      },
      "dialog": {
        "open": true
      },
      "window": {
        "all": false,
        "close": true,
        "hide": true,
        "show": true,
        "maximize": true,
        "minimize": true,
        "unmaximize": true,
        "unminimize": true,
        "startDragging": true
      }
    },
    "bundle": {
      "active": true,
      "targets": "all",
      "identifier": "org.schmulschubiak.simple-markdown-viewer",
      "icon": [
        "icons/32x32.png",
        "icons/128x128.png",
        "icons/128x128@2x.png",
        "icons/icon.icns",
        "icons/icon.ico"
      ]
    },
    "security": {
      "csp": null
    },
    "windows": [
      {
        "fullscreen": false,
        "maximized": true,
        "resizable": true,
        "focus": true,
        "title": "Simple Markdown Viewer",
        "width": 800,
        "height": 600,
        "decorations": false
      }
    ]
  }
}
